[
    {
        "name": "cboden/ratchet",
        "version": "v0.4.1",
        "version_normalized": "0.4.1.0",
        "source": {
            "type": "git",
            "url": "https://github.com/ratchetphp/Ratchet.git",
            "reference": "0d31f3a8ad4795fd48397712709e55cd07f51360"
        },
        "dist": {
            "type": "zip",
            "url": "https://api.github.com/repos/ratchetphp/Ratchet/zipball/0d31f3a8ad4795fd48397712709e55cd07f51360",
            "reference": "0d31f3a8ad4795fd48397712709e55cd07f51360",
            "shasum": ""
        },
        "require": {
            "guzzlehttp/psr7": "^1.0",
            "php": ">=5.4.2",
            "ratchet/rfc6455": "^0.2",
            "react/socket": "^1.0 || ^0.8 || ^0.7 || ^0.6 || ^0.5",
            "symfony/http-foundation": "^2.6|^3.0|^4.0",
            "symfony/routing": "^2.6|^3.0|^4.0"
        },
        "require-dev": {
            "phpunit/phpunit": "~4.8"
        },
        "time": "2017-12-12T00:49:31+00:00",
        "type": "library",
        "installation-source": "dist",
        "autoload": {
            "psr-4": {
                "Ratchet\\": "src/Ratchet"
            }
        },
        "notification-url": "https://packagist.org/downloads/",
        "license": [
            "MIT"
        ],
        "authors": [
            {
                "name": "Chris Boden",
                "email": "cboden@gmail.com",
                "role": "Developer"
            }
        ],
        "description": "PHP WebSocket library",
        "homepage": "http://socketo.me",
        "keywords": [
            "Ratchet",
            "WebSockets",
            "server",
            "sockets",
            "websocket"
        ]
    },
    {
        "name": "doctrine/instantiator",
        "version": "1.0.5",
        "version_normalized": "1.0.5.0",
        "source": {
            "type": "git",
            "url": "https://github.com/doctrine/instantiator.git",
            "reference": "8e884e78f9f0eb1329e445619e04456e64d8051d"
        },
        "dist": {
            "type": "zip",
            "url": "https://api.github.com/repos/doctrine/instantiator/zipball/8e884e78f9f0eb1329e445619e04456e64d8051d",
            "reference": "8e884e78f9f0eb1329e445619e04456e64d8051d",
            "shasum": ""
        },
        "require": {
            "php": ">=5.3,<8.0-DEV"
        },
        "require-dev": {
            "athletic/athletic": "~0.1.8",
            "ext-pdo": "*",
            "ext-phar": "*",
            "phpunit/phpunit": "~4.0",
            "squizlabs/php_codesniffer": "~2.0"
        },
        "time": "2015-06-14T21:17:01+00:00",
        "type": "library",
        "extra": {
            "branch-alias": {
                "dev-master": "1.0.x-dev"
            }
        },
        "installation-source": "dist",
        "autoload": {
            "psr-4": {
                "Doctrine\\Instantiator\\": "src/Doctrine/Instantiator/"
            }
        },
        "notification-url": "https://packagist.org/downloads/",
        "license": [
            "MIT"
        ],
        "authors": [
            {
                "name": "Marco Pivetta",
                "email": "ocramius@gmail.com",
                "homepage": "http://ocramius.github.com/"
            }
        ],
        "description": "A small, lightweight utility to instantiate objects in PHP without invoking their constructors",
        "homepage": "https://github.com/doctrine/instantiator",
        "keywords": [
            "constructor",
            "instantiate"
        ]
    },
    {
        "name": "evenement/evenement",
        "version": "v3.0.1",
        "version_normalized": "3.0.1.0",
        "source": {
            "type": "git",
            "url": "https://github.com/igorw/evenement.git",
            "reference": "531bfb9d15f8aa57454f5f0285b18bec903b8fb7"
        },
        "dist": {
            "type": "zip",
            "url": "https://api.github.com/repos/igorw/evenement/zipball/531bfb9d15f8aa57454f5f0285b18bec903b8fb7",
            "reference": "531bfb9d15f8aa57454f5f0285b18bec903b8fb7",
            "shasum": ""
        },
        "require": {
            "php": ">=7.0"
        },
        "require-dev": {
            "phpunit/phpunit": "^6.0"
        },
        "time": "2017-07-23T21:35:13+00:00",
        "type": "library",
        "installation-source": "dist",
        "autoload": {
            "psr-0": {
                "Evenement": "src"
            }
        },
        "notification-url": "https://packagist.org/downloads/",
        "license": [
            "MIT"
        ],
        "authors": [
            {
                "name": "Igor Wiedler",
                "email": "igor@wiedler.ch"
            }
        ],
        "description": "Événement is a very simple event dispatching library for PHP",
        "keywords": [
            "event-dispatcher",
            "event-emitter"
        ]
    },
    {
        "name": "guzzlehttp/psr7",
        "version": "1.4.2",
        "version_normalized": "1.4.2.0",
        "source": {
            "type": "git",
            "url": "https://github.com/guzzle/psr7.git",
            "reference": "f5b8a8512e2b58b0071a7280e39f14f72e05d87c"
        },
        "dist": {
            "type": "zip",
            "url": "https://api.github.com/repos/guzzle/psr7/zipball/f5b8a8512e2b58b0071a7280e39f14f72e05d87c",
            "reference": "f5b8a8512e2b58b0071a7280e39f14f72e05d87c",
            "shasum": ""
        },
        "require": {
            "php": ">=5.4.0",
            "psr/http-message": "~1.0"
        },
        "provide": {
            "psr/http-message-implementation": "1.0"
        },
        "require-dev": {
            "phpunit/phpunit": "~4.0"
        },
        "time": "2017-03-20T17:10:46+00:00",
        "type": "library",
        "extra": {
            "branch-alias": {
                "dev-master": "1.4-dev"
            }
        },
        "installation-source": "dist",
        "autoload": {
            "psr-4": {
                "GuzzleHttp\\Psr7\\": "src/"
            },
            "files": [
                "src/functions_include.php"
            ]
        },
        "notification-url": "https://packagist.org/downloads/",
        "license": [
            "MIT"
        ],
        "authors": [
            {
                "name": "Michael Dowling",
                "email": "mtdowling@gmail.com",
                "homepage": "https://github.com/mtdowling"
            },
            {
                "name": "Tobias Schultze",
                "homepage": "https://github.com/Tobion"
            }
        ],
        "description": "PSR-7 message implementation that also provides common utility methods",
        "keywords": [
            "http",
            "message",
            "request",
            "response",
            "stream",
            "uri",
            "url"
        ]
    },
    {
        "name": "myclabs/deep-copy",
        "version": "1.7.0",
        "version_normalized": "1.7.0.0",
        "source": {
            "type": "git",
            "url": "https://github.com/myclabs/DeepCopy.git",
            "reference": "3b8a3a99ba1f6a3952ac2747d989303cbd6b7a3e"
        },
        "dist": {
            "type": "zip",
            "url": "https://api.github.com/repos/myclabs/DeepCopy/zipball/3b8a3a99ba1f6a3952ac2747d989303cbd6b7a3e",
            "reference": "3b8a3a99ba1f6a3952ac2747d989303cbd6b7a3e",
            "shasum": ""
        },
        "require": {
            "php": "^5.6 || ^7.0"
        },
        "require-dev": {
            "doctrine/collections": "^1.0",
            "doctrine/common": "^2.6",
            "phpunit/phpunit": "^4.1"
        },
        "time": "2017-10-19T19:58:43+00:00",
        "type": "library",
        "installation-source": "dist",
        "autoload": {
            "psr-4": {
                "DeepCopy\\": "src/DeepCopy/"
            },
            "files": [
                "src/DeepCopy/deep_copy.php"
            ]
        },
        "notification-url": "https://packagist.org/downloads/",
        "license": [
            "MIT"
        ],
        "description": "Create deep copies (clones) of your objects",
        "keywords": [
            "clone",
            "copy",
            "duplicate",
            "object",
            "object graph"
        ]
    },
    {
        "name": "paragonie/random_compat",
        "version": "v2.0.11",
        "version_normalized": "2.0.11.0",
        "source": {
            "type": "git",
            "url": "https://github.com/paragonie/random_compat.git",
            "reference": "5da4d3c796c275c55f057af5a643ae297d96b4d8"
        },
        "dist": {
            "type": "zip",
            "url": "https://api.github.com/repos/paragonie/random_compat/zipball/5da4d3c796c275c55f057af5a643ae297d96b4d8",
            "reference": "5da4d3c796c275c55f057af5a643ae297d96b4d8",
            "shasum": ""
        },
        "require": {
            "php": ">=5.2.0"
        },
        "require-dev": {
            "phpunit/phpunit": "4.*|5.*"
        },
        "suggest": {
            "ext-libsodium": "Provides a modern crypto API that can be used to generate random bytes."
        },
        "time": "2017-09-27T21:40:39+00:00",
        "type": "library",
        "installation-source": "dist",
        "autoload": {
            "files": [
                "lib/random.php"
            ]
        },
        "notification-url": "https://packagist.org/downloads/",
        "license": [
            "MIT"
        ],
        "authors": [
            {
                "name": "Paragon Initiative Enterprises",
                "email": "security@paragonie.com",
                "homepage": "https://paragonie.com"
            }
        ],
        "description": "PHP 5.x polyfill for random_bytes() and random_int() from PHP 7",
        "keywords": [
            "csprng",
            "pseudorandom",
            "random"
        ]
    },
    {
        "name": "phpdocumentor/reflection-common",
        "version": "1.0.1",
        "version_normalized": "1.0.1.0",
        "source": {
            "type": "git",
            "url": "https://github.com/phpDocumentor/ReflectionCommon.git",
            "reference": "21bdeb5f65d7ebf9f43b1b25d404f87deab5bfb6"
        },
        "dist": {
            "type": "zip",
            "url": "https://api.github.com/repos/phpDocumentor/ReflectionCommon/zipball/21bdeb5f65d7ebf9f43b1b25d404f87deab5bfb6",
            "reference": "21bdeb5f65d7ebf9f43b1b25d404f87deab5bfb6",
            "shasum": ""
        },
        "require": {
            "php": ">=5.5"
        },
        "require-dev": {
            "phpunit/phpunit": "^4.6"
        },
        "time": "2017-09-11T18:02:19+00:00",
        "type": "library",
        "extra": {
            "branch-alias": {
                "dev-master": "1.0.x-dev"
            }
        },
        "installation-source": "dist",
        "autoload": {
            "psr-4": {
                "phpDocumentor\\Reflection\\": [
                    "src"
                ]
            }
        },
        "notification-url": "https://packagist.org/downloads/",
        "license": [
            "MIT"
        ],
        "authors": [
            {
                "name": "Jaap van Otterdijk",
                "email": "opensource@ijaap.nl"
            }
        ],
        "description": "Common reflection classes used by phpdocumentor to reflect the code structure",
        "homepage": "http://www.phpdoc.org",
        "keywords": [
            "FQSEN",
            "phpDocumentor",
            "phpdoc",
            "reflection",
            "static analysis"
        ]
    },
    {
        "name": "phpdocumentor/reflection-docblock",
        "version": "4.3.0",
        "version_normalized": "4.3.0.0",
        "source": {
            "type": "git",
            "url": "https://github.com/phpDocumentor/ReflectionDocBlock.git",
            "reference": "94fd0001232e47129dd3504189fa1c7225010d08"
        },
        "dist": {
            "type": "zip",
            "url": "https://api.github.com/repos/phpDocumentor/ReflectionDocBlock/zipball/94fd0001232e47129dd3504189fa1c7225010d08",
            "reference": "94fd0001232e47129dd3504189fa1c7225010d08",
            "shasum": ""
        },
        "require": {
            "php": "^7.0",
            "phpdocumentor/reflection-common": "^1.0.0",
            "phpdocumentor/type-resolver": "^0.4.0",
            "webmozart/assert": "^1.0"
        },
        "require-dev": {
            "doctrine/instantiator": "~1.0.5",
            "mockery/mockery": "^1.0",
            "phpunit/phpunit": "^6.4"
        },
        "time": "2017-11-30T07:14:17+00:00",
        "type": "library",
        "extra": {
            "branch-alias": {
                "dev-master": "4.x-dev"
            }
        },
        "installation-source": "dist",
        "autoload": {
            "psr-4": {
                "phpDocumentor\\Reflection\\": [
                    "src/"
                ]
            }
        },
        "notification-url": "https://packagist.org/downloads/",
        "license": [
            "MIT"
        ],
        "authors": [
            {
                "name": "Mike van Riel",
                "email": "me@mikevanriel.com"
            }
        ],
        "description": "With this component, a library can provide support for annotations via DocBlocks or otherwise retrieve information that is embedded in a DocBlock."
    },
    {
        "name": "phpdocumentor/type-resolver",
        "version": "0.4.0",
        "version_normalized": "0.4.0.0",
        "source": {
            "type": "git",
            "url": "https://github.com/phpDocumentor/TypeResolver.git",
            "reference": "9c977708995954784726e25d0cd1dddf4e65b0f7"
        },
        "dist": {
            "type": "zip",
            "url": "https://api.github.com/repos/phpDocumentor/TypeResolver/zipball/9c977708995954784726e25d0cd1dddf4e65b0f7",
            "reference": "9c977708995954784726e25d0cd1dddf4e65b0f7",
            "shasum": ""
        },
        "require": {
            "php": "^5.5 || ^7.0",
            "phpdocumentor/reflection-common": "^1.0"
        },
        "require-dev": {
            "mockery/mockery": "^0.9.4",
            "phpunit/phpunit": "^5.2||^4.8.24"
        },
        "time": "2017-07-14T14:27:02+00:00",
        "type": "library",
        "extra": {
            "branch-alias": {
                "dev-master": "1.0.x-dev"
            }
        },
        "installation-source": "dist",
        "autoload": {
            "psr-4": {
                "phpDocumentor\\Reflection\\": [
                    "src/"
                ]
            }
        },
        "notification-url": "https://packagist.org/downloads/",
        "license": [
            "MIT"
        ],
        "authors": [
            {
                "name": "Mike van Riel",
                "email": "me@mikevanriel.com"
            }
        ]
    },
    {
        "name": "phpspec/prophecy",
        "version": "1.7.5",
        "version_normalized": "1.7.5.0",
        "source": {
            "type": "git",
            "url": "https://github.com/phpspec/prophecy.git",
            "reference": "dfd6be44111a7c41c2e884a336cc4f461b3b2401"
        },
        "dist": {
            "type": "zip",
            "url": "https://api.github.com/repos/phpspec/prophecy/zipball/dfd6be44111a7c41c2e884a336cc4f461b3b2401",
            "reference": "dfd6be44111a7c41c2e884a336cc4f461b3b2401",
            "shasum": ""
        },
        "require": {
            "doctrine/instantiator": "^1.0.2",
            "php": "^5.3|^7.0",
            "phpdocumentor/reflection-docblock": "^2.0|^3.0.2|^4.0",
            "sebastian/comparator": "^1.1|^2.0",
            "sebastian/recursion-context": "^1.0|^2.0|^3.0"
        },
        "require-dev": {
            "phpspec/phpspec": "^2.5|^3.2",
            "phpunit/phpunit": "^4.8.35 || ^5.7 || ^6.5"
        },
        "time": "2018-02-19T10:16:54+00:00",
        "type": "library",
        "extra": {
            "branch-alias": {
                "dev-master": "1.7.x-dev"
            }
        },
        "installation-source": "dist",
        "autoload": {
            "psr-0": {
                "Prophecy\\": "src/"
            }
        },
        "notification-url": "https://packagist.org/downloads/",
        "license": [
            "MIT"
        ],
        "authors": [
            {
                "name": "Konstantin Kudryashov",
                "email": "ever.zet@gmail.com",
                "homepage": "http://everzet.com"
            },
            {
                "name": "Marcello Duarte",
                "email": "marcello.duarte@gmail.com"
            }
        ],
        "description": "Highly opinionated mocking framework for PHP 5.3+",
        "homepage": "https://github.com/phpspec/prophecy",
        "keywords": [
            "Double",
            "Dummy",
            "fake",
            "mock",
            "spy",
            "stub"
        ]
    },
    {
        "name": "phpunit/php-code-coverage",
        "version": "4.0.8",
        "version_normalized": "4.0.8.0",
        "source": {
            "type": "git",
            "url": "https://github.com/sebastianbergmann/php-code-coverage.git",
            "reference": "ef7b2f56815df854e66ceaee8ebe9393ae36a40d"
        },
        "dist": {
            "type": "zip",
            "url": "https://api.github.com/repos/sebastianbergmann/php-code-coverage/zipball/ef7b2f56815df854e66ceaee8ebe9393ae36a40d",
            "reference": "ef7b2f56815df854e66ceaee8ebe9393ae36a40d",
            "shasum": ""
        },
        "require": {
            "ext-dom": "*",
            "ext-xmlwriter": "*",
            "php": "^5.6 || ^7.0",
            "phpunit/php-file-iterator": "^1.3",
            "phpunit/php-text-template": "^1.2",
            "phpunit/php-token-stream": "^1.4.2 || ^2.0",
            "sebastian/code-unit-reverse-lookup": "^1.0",
            "sebastian/environment": "^1.3.2 || ^2.0",
            "sebastian/version": "^1.0 || ^2.0"
        },
        "require-dev": {
            "ext-xdebug": "^2.1.4",
            "phpunit/phpunit": "^5.7"
        },
        "suggest": {
            "ext-xdebug": "^2.5.1"
        },
        "time": "2017-04-02T07:44:40+00:00",
        "type": "library",
        "extra": {
            "branch-alias": {
                "dev-master": "4.0.x-dev"
            }
        },
        "installation-source": "dist",
        "autoload": {
            "classmap": [
                "src/"
            ]
        },
        "notification-url": "https://packagist.org/downloads/",
        "license": [
            "BSD-3-Clause"
        ],
        "authors": [
            {
                "name": "Sebastian Bergmann",
                "email": "sb@sebastian-bergmann.de",
                "role": "lead"
            }
        ],
        "description": "Library that provides collection, processing, and rendering functionality for PHP code coverage information.",
        "homepage": "https://github.com/sebastianbergmann/php-code-coverage",
        "keywords": [
            "coverage",
            "testing",
            "xunit"
        ]
    },
    {
        "name": "phpunit/php-file-iterator",
        "version": "1.4.5",
        "version_normalized": "1.4.5.0",
        "source": {
            "type": "git",
            "url": "https://github.com/sebastianbergmann/php-file-iterator.git",
            "reference": "730b01bc3e867237eaac355e06a36b85dd93a8b4"
        },
        "dist": {
            "type": "zip",
            "url": "https://api.github.com/repos/sebastianbergmann/php-file-iterator/zipball/730b01bc3e867237eaac355e06a36b85dd93a8b4",
            "reference": "730b01bc3e867237eaac355e06a36b85dd93a8b4",
            "shasum": ""
        },
        "require": {
            "php": ">=5.3.3"
        },
        "time": "2017-11-27T13:52:08+00:00",
        "type": "library",
        "extra": {
            "branch-alias": {
                "dev-master": "1.4.x-dev"
            }
        },
        "installation-source": "dist",
        "autoload": {
            "classmap": [
                "src/"
            ]
        },
        "notification-url": "https://packagist.org/downloads/",
        "license": [
            "BSD-3-Clause"
        ],
        "authors": [
            {
                "name": "Sebastian Bergmann",
                "email": "sb@sebastian-bergmann.de",
                "role": "lead"
            }
        ],
        "description": "FilterIterator implementation that filters files based on a list of suffixes.",
        "homepage": "https://github.com/sebastianbergmann/php-file-iterator/",
        "keywords": [
            "filesystem",
            "iterator"
        ]
    },
    {
        "name": "phpunit/php-text-template",
        "version": "1.2.1",
        "version_normalized": "1.2.1.0",
        "source": {
            "type": "git",
            "url": "https://github.com/sebastianbergmann/php-text-template.git",
            "reference": "31f8b717e51d9a2afca6c9f046f5d69fc27c8686"
        },
        "dist": {
            "type": "zip",
            "url": "https://api.github.com/repos/sebastianbergmann/php-text-template/zipball/31f8b717e51d9a2afca6c9f046f5d69fc27c8686",
            "reference": "31f8b717e51d9a2afca6c9f046f5d69fc27c8686",
            "shasum": ""
        },
        "require": {
            "php": ">=5.3.3"
        },
        "time": "2015-06-21T13:50:34+00:00",
        "type": "library",
        "installation-source": "dist",
        "autoload": {
            "classmap": [
                "src/"
            ]
        },
        "notification-url": "https://packagist.org/downloads/",
        "license": [
            "BSD-3-Clause"
        ],
        "authors": [
            {
                "name": "Sebastian Bergmann",
                "email": "sebastian@phpunit.de",
                "role": "lead"
            }
        ],
        "description": "Simple template engine.",
        "homepage": "https://github.com/sebastianbergmann/php-text-template/",
        "keywords": [
            "template"
        ]
    },
    {
        "name": "phpunit/php-timer",
        "version": "1.0.9",
        "version_normalized": "1.0.9.0",
        "source": {
            "type": "git",
            "url": "https://github.com/sebastianbergmann/php-timer.git",
            "reference": "3dcf38ca72b158baf0bc245e9184d3fdffa9c46f"
        },
        "dist": {
            "type": "zip",
            "url": "https://api.github.com/repos/sebastianbergmann/php-timer/zipball/3dcf38ca72b158baf0bc245e9184d3fdffa9c46f",
            "reference": "3dcf38ca72b158baf0bc245e9184d3fdffa9c46f",
            "shasum": ""
        },
        "require": {
            "php": "^5.3.3 || ^7.0"
        },
        "require-dev": {
            "phpunit/phpunit": "^4.8.35 || ^5.7 || ^6.0"
        },
        "time": "2017-02-26T11:10:40+00:00",
        "type": "library",
        "extra": {
            "branch-alias": {
                "dev-master": "1.0-dev"
            }
        },
        "installation-source": "dist",
        "autoload": {
            "classmap": [
                "src/"
            ]
        },
        "notification-url": "https://packagist.org/downloads/",
        "license": [
            "BSD-3-Clause"
        ],
        "authors": [
            {
                "name": "Sebastian Bergmann",
                "email": "sb@sebastian-bergmann.de",
                "role": "lead"
            }
        ],
        "description": "Utility class for timing",
        "homepage": "https://github.com/sebastianbergmann/php-timer/",
        "keywords": [
            "timer"
        ]
    },
    {
        "name": "phpunit/php-token-stream",
        "version": "2.0.2",
        "version_normalized": "2.0.2.0",
        "source": {
            "type": "git",
            "url": "https://github.com/sebastianbergmann/php-token-stream.git",
            "reference": "791198a2c6254db10131eecfe8c06670700904db"
        },
        "dist": {
            "type": "zip",
            "url": "https://api.github.com/repos/sebastianbergmann/php-token-stream/zipball/791198a2c6254db10131eecfe8c06670700904db",
            "reference": "791198a2c6254db10131eecfe8c06670700904db",
            "shasum": ""
        },
        "require": {
            "ext-tokenizer": "*",
            "php": "^7.0"
        },
        "require-dev": {
            "phpunit/phpunit": "^6.2.4"
        },
        "time": "2017-11-27T05:48:46+00:00",
        "type": "library",
        "extra": {
            "branch-alias": {
                "dev-master": "2.0-dev"
            }
        },
        "installation-source": "dist",
        "autoload": {
            "classmap": [
                "src/"
            ]
        },
        "notification-url": "https://packagist.org/downloads/",
        "license": [
            "BSD-3-Clause"
        ],
        "authors": [
            {
                "name": "Sebastian Bergmann",
                "email": "sebastian@phpunit.de"
            }
        ],
        "description": "Wrapper around PHP's tokenizer extension.",
        "homepage": "https://github.com/sebastianbergmann/php-token-stream/",
        "keywords": [
            "tokenizer"
        ]
    },
    {
        "name": "phpunit/phpunit",
        "version": "5.7.27",
        "version_normalized": "5.7.27.0",
        "source": {
            "type": "git",
            "url": "https://github.com/sebastianbergmann/phpunit.git",
            "reference": "b7803aeca3ccb99ad0a506fa80b64cd6a56bbc0c"
        },
        "dist": {
            "type": "zip",
            "url": "https://api.github.com/repos/sebastianbergmann/phpunit/zipball/b7803aeca3ccb99ad0a506fa80b64cd6a56bbc0c",
            "reference": "b7803aeca3ccb99ad0a506fa80b64cd6a56bbc0c",
            "shasum": ""
        },
        "require": {
            "ext-dom": "*",
            "ext-json": "*",
            "ext-libxml": "*",
            "ext-mbstring": "*",
            "ext-xml": "*",
            "myclabs/deep-copy": "~1.3",
            "php": "^5.6 || ^7.0",
            "phpspec/prophecy": "^1.6.2",
            "phpunit/php-code-coverage": "^4.0.4",
            "phpunit/php-file-iterator": "~1.4",
            "phpunit/php-text-template": "~1.2",
            "phpunit/php-timer": "^1.0.6",
            "phpunit/phpunit-mock-objects": "^3.2",
            "sebastian/comparator": "^1.2.4",
            "sebastian/diff": "^1.4.3",
            "sebastian/environment": "^1.3.4 || ^2.0",
            "sebastian/exporter": "~2.0",
            "sebastian/global-state": "^1.1",
            "sebastian/object-enumerator": "~2.0",
            "sebastian/resource-operations": "~1.0",
            "sebastian/version": "^1.0.6|^2.0.1",
            "symfony/yaml": "~2.1|~3.0|~4.0"
        },
        "conflict": {
            "phpdocumentor/reflection-docblock": "3.0.2"
        },
        "require-dev": {
            "ext-pdo": "*"
        },
        "suggest": {
            "ext-xdebug": "*",
            "phpunit/php-invoker": "~1.1"
        },
        "time": "2018-02-01T05:50:59+00:00",
        "bin": [
            "phpunit"
        ],
        "type": "library",
        "extra": {
            "branch-alias": {
                "dev-master": "5.7.x-dev"
            }
        },
        "installation-source": "dist",
        "autoload": {
            "classmap": [
                "src/"
            ]
        },
        "notification-url": "https://packagist.org/downloads/",
        "license": [
            "BSD-3-Clause"
        ],
        "authors": [
            {
                "name": "Sebastian Bergmann",
                "email": "sebastian@phpunit.de",
                "role": "lead"
            }
        ],
        "description": "The PHP Unit Testing framework.",
        "homepage": "https://phpunit.de/",
        "keywords": [
            "phpunit",
            "testing",
            "xunit"
        ]
    },
    {
        "name": "phpunit/phpunit-mock-objects",
        "version": "3.4.4",
        "version_normalized": "3.4.4.0",
        "source": {
            "type": "git",
            "url": "https://github.com/sebastianbergmann/phpunit-mock-objects.git",
            "reference": "a23b761686d50a560cc56233b9ecf49597cc9118"
        },
        "dist": {
            "type": "zip",
            "url": "https://api.github.com/repos/sebastianbergmann/phpunit-mock-objects/zipball/a23b761686d50a560cc56233b9ecf49597cc9118",
            "reference": "a23b761686d50a560cc56233b9ecf49597cc9118",
            "shasum": ""
        },
        "require": {
            "doctrine/instantiator": "^1.0.2",
            "php": "^5.6 || ^7.0",
            "phpunit/php-text-template": "^1.2",
            "sebastian/exporter": "^1.2 || ^2.0"
        },
        "conflict": {
            "phpunit/phpunit": "<5.4.0"
        },
        "require-dev": {
            "phpunit/phpunit": "^5.4"
        },
        "suggest": {
            "ext-soap": "*"
        },
        "time": "2017-06-30T09:13:00+00:00",
        "type": "library",
        "extra": {
            "branch-alias": {
                "dev-master": "3.2.x-dev"
            }
        },
        "installation-source": "dist",
        "autoload": {
            "classmap": [
                "src/"
            ]
        },
        "notification-url": "https://packagist.org/downloads/",
        "license": [
            "BSD-3-Clause"
        ],
        "authors": [
            {
                "name": "Sebastian Bergmann",
                "email": "sb@sebastian-bergmann.de",
                "role": "lead"
            }
        ],
        "description": "Mock Object library for PHPUnit",
        "homepage": "https://github.com/sebastianbergmann/phpunit-mock-objects/",
        "keywords": [
            "mock",
            "xunit"
        ]
    },
    {
        "name": "psr/http-message",
        "version": "1.0.1",
        "version_normalized": "1.0.1.0",
        "source": {
            "type": "git",
            "url": "https://github.com/php-fig/http-message.git",
            "reference": "f6561bf28d520154e4b0ec72be95418abe6d9363"
        },
        "dist": {
            "type": "zip",
            "url": "https://api.github.com/repos/php-fig/http-message/zipball/f6561bf28d520154e4b0ec72be95418abe6d9363",
            "reference": "f6561bf28d520154e4b0ec72be95418abe6d9363",
            "shasum": ""
        },
        "require": {
            "php": ">=5.3.0"
        },
        "time": "2016-08-06T14:39:51+00:00",
        "type": "library",
        "extra": {
            "branch-alias": {
                "dev-master": "1.0.x-dev"
            }
        },
        "installation-source": "dist",
        "autoload": {
            "psr-4": {
                "Psr\\Http\\Message\\": "src/"
            }
        },
        "notification-url": "https://packagist.org/downloads/",
        "license": [
            "MIT"
        ],
        "authors": [
            {
                "name": "PHP-FIG",
                "homepage": "http://www.php-fig.org/"
            }
        ],
        "description": "Common interface for HTTP messages",
        "homepage": "https://github.com/php-fig/http-message",
        "keywords": [
            "http",
            "http-message",
            "psr",
            "psr-7",
            "request",
            "response"
        ]
    },
    {
        "name": "psr/log",
        "version": "1.0.2",
        "version_normalized": "1.0.2.0",
        "source": {
            "type": "git",
            "url": "https://github.com/php-fig/log.git",
            "reference": "4ebe3a8bf773a19edfe0a84b6585ba3d401b724d"
        },
        "dist": {
            "type": "zip",
            "url": "https://api.github.com/repos/php-fig/log/zipball/4ebe3a8bf773a19edfe0a84b6585ba3d401b724d",
            "reference": "4ebe3a8bf773a19edfe0a84b6585ba3d401b724d",
            "shasum": ""
        },
        "require": {
            "php": ">=5.3.0"
        },
        "time": "2016-10-10T12:19:37+00:00",
        "type": "library",
        "extra": {
            "branch-alias": {
                "dev-master": "1.0.x-dev"
            }
        },
        "installation-source": "dist",
        "autoload": {
            "psr-4": {
                "Psr\\Log\\": "Psr/Log/"
            }
        },
        "notification-url": "https://packagist.org/downloads/",
        "license": [
            "MIT"
        ],
        "authors": [
            {
                "name": "PHP-FIG",
                "homepage": "http://www.php-fig.org/"
            }
        ],
        "description": "Common interface for logging libraries",
        "homepage": "https://github.com/php-fig/log",
        "keywords": [
            "log",
            "psr",
            "psr-3"
        ]
    },
    {
        "name": "ratchet/pawl",
        "version": "v0.3.1",
        "version_normalized": "0.3.1.0",
        "source": {
            "type": "git",
            "url": "https://github.com/ratchetphp/Pawl.git",
            "reference": "f8df4bc1675ca88a4e53bf1872e1e881b6a0b0de"
        },
        "dist": {
            "type": "zip",
            "url": "https://api.github.com/repos/ratchetphp/Pawl/zipball/f8df4bc1675ca88a4e53bf1872e1e881b6a0b0de",
            "reference": "f8df4bc1675ca88a4e53bf1872e1e881b6a0b0de",
            "shasum": ""
        },
        "require": {
            "evenement/evenement": "^3.0 || ^2.0",
            "php": ">=5.4",
            "ratchet/rfc6455": "^0.2.3",
            "react/socket": "^1.0 || ^0.8 || ^0.7"
        },
        "require-dev": {
            "phpunit/phpunit": "~4.8"
        },
        "suggest": {
            "reactivex/rxphp": "~2.0"
        },
        "time": "2017-10-22T21:14:18+00:00",
        "type": "library",
        "installation-source": "dist",
        "autoload": {
            "psr-4": {
                "Ratchet\\Client\\": "src"
            },
            "files": [
                "src/functions_include.php"
            ]
        },
        "notification-url": "https://packagist.org/downloads/",
        "license": [
            "MIT"
        ],
        "description": "Asynchronous WebSocket client",
        "keywords": [
            "Ratchet",
            "async",
            "client",
            "websocket",
            "websocket client"
        ]
    },
    {
        "name": "ratchet/rfc6455",
        "version": "v0.2.3",
        "version_normalized": "0.2.3.0",
        "source": {
            "type": "git",
            "url": "https://github.com/ratchetphp/RFC6455.git",
            "reference": "cc8a1a46a703ce01de10fdb5fab387381b66edc8"
        },
        "dist": {
            "type": "zip",
            "url": "https://api.github.com/repos/ratchetphp/RFC6455/zipball/cc8a1a46a703ce01de10fdb5fab387381b66edc8",
            "reference": "cc8a1a46a703ce01de10fdb5fab387381b66edc8",
            "shasum": ""
        },
        "require": {
            "guzzlehttp/psr7": "^1.0",
            "php": ">=5.4.2"
        },
        "require-dev": {
            "phpunit/phpunit": "4.8.*",
            "react/http": "^0.4.1",
            "react/socket-client": "^0.4.3"
        },
        "time": "2017-09-13T13:49:42+00:00",
        "type": "library",
        "installation-source": "dist",
        "autoload": {
            "psr-4": {
                "Ratchet\\RFC6455\\": "src"
            }
        },
        "notification-url": "https://packagist.org/downloads/",
        "license": [
            "MIT"
        ],
        "authors": [
            {
                "name": "Chris Boden",
                "email": "cboden@gmail.com",
                "role": "Developer"
            }
        ],
        "description": "RFC6455 WebSocket protocol handler",
        "homepage": "http://socketo.me",
        "keywords": [
            "WebSockets",
            "rfc6455",
            "websocket"
        ]
    },
    {
        "name": "react/cache",
        "version": "v0.4.2",
        "version_normalized": "0.4.2.0",
        "source": {
            "type": "git",
            "url": "https://github.com/reactphp/cache.git",
            "reference": "75494f26b4ef089db9bf8c90b63c296246e099e8"
        },
        "dist": {
            "type": "zip",
            "url": "https://api.github.com/repos/reactphp/cache/zipball/75494f26b4ef089db9bf8c90b63c296246e099e8",
            "reference": "75494f26b4ef089db9bf8c90b63c296246e099e8",
            "shasum": ""
        },
        "require": {
            "php": ">=5.3.0",
            "react/promise": "~2.0|~1.1"
        },
        "require-dev": {
            "phpunit/phpunit": "^6.4 || ^5.7 || ^4.8.35"
        },
        "time": "2017-12-20T16:47:13+00:00",
        "type": "library",
        "installation-source": "dist",
        "autoload": {
            "psr-4": {
                "React\\Cache\\": "src/"
            }
        },
        "notification-url": "https://packagist.org/downloads/",
        "license": [
            "MIT"
        ],
        "description": "Async, Promise-based cache interface for ReactPHP",
        "keywords": [
            "cache",
            "caching",
            "promise",
            "reactphp"
        ]
    },
    {
        "name": "react/dns",
        "version": "v0.4.13",
        "version_normalized": "0.4.13.0",
        "source": {
            "type": "git",
            "url": "https://github.com/reactphp/dns.git",
            "reference": "7d1e08c300fd7de600810883386ee5e2a64898f4"
        },
        "dist": {
            "type": "zip",
            "url": "https://api.github.com/repos/reactphp/dns/zipball/7d1e08c300fd7de600810883386ee5e2a64898f4",
            "reference": "7d1e08c300fd7de600810883386ee5e2a64898f4",
            "shasum": ""
        },
        "require": {
            "php": ">=5.3.0",
            "react/cache": "~0.4.0|~0.3.0",
            "react/event-loop": "^1.0 || ^0.5 || ^0.4 || ^0.3.5",
            "react/promise": "^2.1 || ^1.2.1",
            "react/promise-timer": "^1.2",
            "react/stream": "^1.0 || ^0.7 || ^0.6 || ^0.5 || ^0.4.5"
        },
        "require-dev": {
            "clue/block-react": "^1.2",
            "phpunit/phpunit": "^6.4 || ^5.7 || ^4.8.35"
        },
        "time": "2018-02-27T12:51:22+00:00",
        "type": "library",
        "installation-source": "dist",
        "autoload": {
            "psr-4": {
                "React\\Dns\\": "src"
            }
        },
        "notification-url": "https://packagist.org/downloads/",
        "license": [
            "MIT"
        ],
        "description": "Async DNS resolver for ReactPHP",
        "keywords": [
            "async",
            "dns",
            "dns-resolver",
            "reactphp"
        ]
    },
    {
        "name": "react/event-loop",
        "version": "v0.4.3",
        "version_normalized": "0.4.3.0",
        "source": {
            "type": "git",
            "url": "https://github.com/reactphp/event-loop.git",
            "reference": "8bde03488ee897dc6bb3d91e4e17c353f9c5252f"
        },
        "dist": {
            "type": "zip",
            "url": "https://api.github.com/repos/reactphp/event-loop/zipball/8bde03488ee897dc6bb3d91e4e17c353f9c5252f",
            "reference": "8bde03488ee897dc6bb3d91e4e17c353f9c5252f",
            "shasum": ""
        },
        "require": {
            "php": ">=5.4.0"
        },
        "require-dev": {
            "phpunit/phpunit": "~4.8"
        },
        "suggest": {
            "ext-event": "~1.0",
            "ext-libev": "*",
            "ext-libevent": ">=0.1.0"
        },
        "time": "2017-04-27T10:56:23+00:00",
        "type": "library",
        "installation-source": "dist",
        "autoload": {
            "psr-4": {
                "React\\EventLoop\\": "src"
            }
        },
        "notification-url": "https://packagist.org/downloads/",
        "license": [
            "MIT"
        ],
        "description": "Event loop abstraction layer that libraries can use for evented I/O.",
        "keywords": [
            "asynchronous",
            "event-loop"
        ]
    },
    {
        "name": "react/promise",
        "version": "v2.5.1",
        "version_normalized": "2.5.1.0",
        "source": {
            "type": "git",
            "url": "https://github.com/reactphp/promise.git",
            "reference": "62785ae604c8d69725d693eb370e1d67e94c4053"
        },
        "dist": {
            "type": "zip",
            "url": "https://api.github.com/repos/reactphp/promise/zipball/62785ae604c8d69725d693eb370e1d67e94c4053",
            "reference": "62785ae604c8d69725d693eb370e1d67e94c4053",
            "shasum": ""
        },
        "require": {
            "php": ">=5.4.0"
        },
        "require-dev": {
            "phpunit/phpunit": "~4.8"
        },
        "time": "2017-03-25T12:08:31+00:00",
        "type": "library",
        "installation-source": "dist",
        "autoload": {
            "psr-4": {
                "React\\Promise\\": "src/"
            },
            "files": [
                "src/functions_include.php"
            ]
        },
        "notification-url": "https://packagist.org/downloads/",
        "license": [
            "MIT"
        ],
        "authors": [
            {
                "name": "Jan Sorgalla",
                "email": "jsorgalla@gmail.com"
            }
        ],
        "description": "A lightweight implementation of CommonJS Promises/A for PHP",
        "keywords": [
            "promise",
            "promises"
        ]
    },
    {
        "name": "react/promise-timer",
        "version": "v1.2.1",
        "version_normalized": "1.2.1.0",
        "source": {
            "type": "git",
            "url": "https://github.com/reactphp/promise-timer.git",
            "reference": "9b4cd9cbe7457e0d87fe8aa7ccceab8a2c830fbd"
        },
        "dist": {
            "type": "zip",
            "url": "https://api.github.com/repos/reactphp/promise-timer/zipball/9b4cd9cbe7457e0d87fe8aa7ccceab8a2c830fbd",
            "reference": "9b4cd9cbe7457e0d87fe8aa7ccceab8a2c830fbd",
            "shasum": ""
        },
        "require": {
            "php": ">=5.3",
            "react/event-loop": "^1.0 || ^0.5 || ^0.4 || ^0.3.5",
            "react/promise": "~2.1|~1.2"
        },
        "require-dev": {
            "phpunit/phpunit": "^6.4 || ^5.7 || ^4.8.35"
        },
        "time": "2017-12-22T15:41:41+00:00",
        "type": "library",
        "installation-source": "dist",
        "autoload": {
            "psr-4": {
                "React\\Promise\\Timer\\": "src/"
            },
            "files": [
                "src/functions.php"
            ]
        },
        "notification-url": "https://packagist.org/downloads/",
        "license": [
            "MIT"
        ],
        "authors": [
            {
                "name": "Christian Lück",
                "email": "christian@lueck.tv"
            }
        ],
        "description": "A trivial implementation of timeouts for Promises, built on top of ReactPHP.",
        "homepage": "https://github.com/react/promise-timer",
        "keywords": [
            "async",
            "event-loop",
            "promise",
            "reactphp",
            "timeout",
            "timer"
        ]
    },
    {
        "name": "react/socket",
        "version": "v0.8.10",
        "version_normalized": "0.8.10.0",
        "source": {
            "type": "git",
            "url": "https://github.com/reactphp/socket.git",
            "reference": "d3957313c92b539537fccc80170c05a27ec25796"
        },
        "dist": {
            "type": "zip",
            "url": "https://api.github.com/repos/reactphp/socket/zipball/d3957313c92b539537fccc80170c05a27ec25796",
            "reference": "d3957313c92b539537fccc80170c05a27ec25796",
            "shasum": ""
        },
        "require": {
            "evenement/evenement": "^3.0 || ^2.0 || ^1.0",
            "php": ">=5.3.0",
            "react/dns": "^0.4.13",
            "react/event-loop": "^1.0 || ^0.5 || ^0.4 || ^0.3.5",
            "react/promise": "^2.1 || ^1.2",
            "react/promise-timer": "~1.0",
            "react/stream": "^1.0 || ^0.7.1"
        },
        "require-dev": {
            "clue/block-react": "^1.2",
            "phpunit/phpunit": "^6.4 || ^5.7 || ^4.8.35"
        },
        "time": "2018-02-28T09:32:38+00:00",
        "type": "library",
        "installation-source": "dist",
        "autoload": {
            "psr-4": {
                "React\\Socket\\": "src"
            }
        },
        "notification-url": "https://packagist.org/downloads/",
        "license": [
            "MIT"
        ],
        "description": "Async, streaming plaintext TCP/IP and secure TLS socket server and client connections for ReactPHP",
        "keywords": [
            "Connection",
            "Socket",
            "async",
            "reactphp",
            "stream"
        ]
    },
    {
        "name": "react/stream",
        "version": "v0.7.7",
        "version_normalized": "0.7.7.0",
        "source": {
            "type": "git",
            "url": "https://github.com/reactphp/stream.git",
            "reference": "10100896018fd847a257cd81143b8e1b7be08e40"
        },
        "dist": {
            "type": "zip",
            "url": "https://api.github.com/repos/reactphp/stream/zipball/10100896018fd847a257cd81143b8e1b7be08e40",
            "reference": "10100896018fd847a257cd81143b8e1b7be08e40",
            "shasum": ""
        },
        "require": {
            "evenement/evenement": "^3.0 || ^2.0 || ^1.0",
            "php": ">=5.3.8",
            "react/event-loop": "^1.0 || ^0.5 || ^0.4 || ^0.3.5"
        },
        "require-dev": {
            "clue/stream-filter": "~1.2",
            "phpunit/phpunit": "^6.4 || ^5.7 || ^4.8.35"
        },
        "time": "2018-01-19T15:04:38+00:00",
        "type": "library",
        "installation-source": "dist",
        "autoload": {
            "psr-4": {
                "React\\Stream\\": "src"
            }
        },
        "notification-url": "https://packagist.org/downloads/",
        "license": [
            "MIT"
        ],
        "description": "Event-driven readable and writable streams for non-blocking I/O in ReactPHP",
        "keywords": [
            "event-driven",
            "io",
            "non-blocking",
            "pipe",
            "reactphp",
            "readable",
            "stream",
            "writable"
        ]
    },
    {
        "name": "sebastian/code-unit-reverse-lookup",
        "version": "1.0.1",
        "version_normalized": "1.0.1.0",
        "source": {
            "type": "git",
            "url": "https://github.com/sebastianbergmann/code-unit-reverse-lookup.git",
            "reference": "4419fcdb5eabb9caa61a27c7a1db532a6b55dd18"
        },
        "dist": {
            "type": "zip",
            "url": "https://api.github.com/repos/sebastianbergmann/code-unit-reverse-lookup/zipball/4419fcdb5eabb9caa61a27c7a1db532a6b55dd18",
            "reference": "4419fcdb5eabb9caa61a27c7a1db532a6b55dd18",
            "shasum": ""
        },
        "require": {
            "php": "^5.6 || ^7.0"
        },
        "require-dev": {
            "phpunit/phpunit": "^5.7 || ^6.0"
        },
        "time": "2017-03-04T06:30:41+00:00",
        "type": "library",
        "extra": {
            "branch-alias": {
                "dev-master": "1.0.x-dev"
            }
        },
        "installation-source": "dist",
        "autoload": {
            "classmap": [
                "src/"
            ]
        },
        "notification-url": "https://packagist.org/downloads/",
        "license": [
            "BSD-3-Clause"
        ],
        "authors": [
            {
                "name": "Sebastian Bergmann",
                "email": "sebastian@phpunit.de"
            }
        ],
        "description": "Looks up which function or method a line of code belongs to",
        "homepage": "https://github.com/sebastianbergmann/code-unit-reverse-lookup/"
    },
    {
        "name": "sebastian/comparator",
        "version": "1.2.4",
        "version_normalized": "1.2.4.0",
        "source": {
            "type": "git",
            "url": "https://github.com/sebastianbergmann/comparator.git",
            "reference": "2b7424b55f5047b47ac6e5ccb20b2aea4011d9be"
        },
        "dist": {
            "type": "zip",
            "url": "https://api.github.com/repos/sebastianbergmann/comparator/zipball/2b7424b55f5047b47ac6e5ccb20b2aea4011d9be",
            "reference": "2b7424b55f5047b47ac6e5ccb20b2aea4011d9be",
            "shasum": ""
        },
        "require": {
            "php": ">=5.3.3",
            "sebastian/diff": "~1.2",
            "sebastian/exporter": "~1.2 || ~2.0"
        },
        "require-dev": {
            "phpunit/phpunit": "~4.4"
        },
        "time": "2017-01-29T09:50:25+00:00",
        "type": "library",
        "extra": {
            "branch-alias": {
                "dev-master": "1.2.x-dev"
            }
        },
        "installation-source": "dist",
        "autoload": {
            "classmap": [
                "src/"
            ]
        },
        "notification-url": "https://packagist.org/downloads/",
        "license": [
            "BSD-3-Clause"
        ],
        "authors": [
            {
                "name": "Jeff Welch",
                "email": "whatthejeff@gmail.com"
            },
            {
                "name": "Volker Dusch",
                "email": "github@wallbash.com"
            },
            {
                "name": "Bernhard Schussek",
                "email": "bschussek@2bepublished.at"
            },
            {
                "name": "Sebastian Bergmann",
                "email": "sebastian@phpunit.de"
            }
        ],
        "description": "Provides the functionality to compare PHP values for equality",
        "homepage": "http://www.github.com/sebastianbergmann/comparator",
        "keywords": [
            "comparator",
            "compare",
            "equality"
        ]
    },
    {
        "name": "sebastian/diff",
        "version": "1.4.3",
        "version_normalized": "1.4.3.0",
        "source": {
            "type": "git",
            "url": "https://github.com/sebastianbergmann/diff.git",
            "reference": "7f066a26a962dbe58ddea9f72a4e82874a3975a4"
        },
        "dist": {
            "type": "zip",
            "url": "https://api.github.com/repos/sebastianbergmann/diff/zipball/7f066a26a962dbe58ddea9f72a4e82874a3975a4",
            "reference": "7f066a26a962dbe58ddea9f72a4e82874a3975a4",
            "shasum": ""
        },
        "require": {
            "php": "^5.3.3 || ^7.0"
        },
        "require-dev": {
            "phpunit/phpunit": "^4.8.35 || ^5.7 || ^6.0"
        },
        "time": "2017-05-22T07:24:03+00:00",
        "type": "library",
        "extra": {
            "branch-alias": {
                "dev-master": "1.4-dev"
            }
        },
        "installation-source": "dist",
        "autoload": {
            "classmap": [
                "src/"
            ]
        },
        "notification-url": "https://packagist.org/downloads/",
        "license": [
            "BSD-3-Clause"
        ],
        "authors": [
            {
                "name": "Kore Nordmann",
                "email": "mail@kore-nordmann.de"
            },
            {
                "name": "Sebastian Bergmann",
                "email": "sebastian@phpunit.de"
            }
        ],
        "description": "Diff implementation",
        "homepage": "https://github.com/sebastianbergmann/diff",
        "keywords": [
            "diff"
        ]
    },
    {
        "name": "sebastian/environment",
        "version": "2.0.0",
        "version_normalized": "2.0.0.0",
        "source": {
            "type": "git",
            "url": "https://github.com/sebastianbergmann/environment.git",
            "reference": "5795ffe5dc5b02460c3e34222fee8cbe245d8fac"
        },
        "dist": {
            "type": "zip",
            "url": "https://api.github.com/repos/sebastianbergmann/environment/zipball/5795ffe5dc5b02460c3e34222fee8cbe245d8fac",
            "reference": "5795ffe5dc5b02460c3e34222fee8cbe245d8fac",
            "shasum": ""
        },
        "require": {
            "php": "^5.6 || ^7.0"
        },
        "require-dev": {
            "phpunit/phpunit": "^5.0"
        },
        "time": "2016-11-26T07:53:53+00:00",
        "type": "library",
        "extra": {
            "branch-alias": {
                "dev-master": "2.0.x-dev"
            }
        },
        "installation-source": "dist",
        "autoload": {
            "classmap": [
                "src/"
            ]
        },
        "notification-url": "https://packagist.org/downloads/",
        "license": [
            "BSD-3-Clause"
        ],
        "authors": [
            {
                "name": "Sebastian Bergmann",
                "email": "sebastian@phpunit.de"
            }
        ],
        "description": "Provides functionality to handle HHVM/PHP environments",
        "homepage": "http://www.github.com/sebastianbergmann/environment",
        "keywords": [
            "Xdebug",
            "environment",
            "hhvm"
        ]
    },
    {
        "name": "sebastian/exporter",
        "version": "2.0.0",
        "version_normalized": "2.0.0.0",
        "source": {
            "type": "git",
            "url": "https://github.com/sebastianbergmann/exporter.git",
            "reference": "ce474bdd1a34744d7ac5d6aad3a46d48d9bac4c4"
        },
        "dist": {
            "type": "zip",
            "url": "https://api.github.com/repos/sebastianbergmann/exporter/zipball/ce474bdd1a34744d7ac5d6aad3a46d48d9bac4c4",
            "reference": "ce474bdd1a34744d7ac5d6aad3a46d48d9bac4c4",
            "shasum": ""
        },
        "require": {
            "php": ">=5.3.3",
            "sebastian/recursion-context": "~2.0"
        },
        "require-dev": {
            "ext-mbstring": "*",
            "phpunit/phpunit": "~4.4"
        },
        "time": "2016-11-19T08:54:04+00:00",
        "type": "library",
        "extra": {
            "branch-alias": {
                "dev-master": "2.0.x-dev"
            }
        },
        "installation-source": "dist",
        "autoload": {
            "classmap": [
                "src/"
            ]
        },
        "notification-url": "https://packagist.org/downloads/",
        "license": [
            "BSD-3-Clause"
        ],
        "authors": [
            {
                "name": "Jeff Welch",
                "email": "whatthejeff@gmail.com"
            },
            {
                "name": "Volker Dusch",
                "email": "github@wallbash.com"
            },
            {
                "name": "Bernhard Schussek",
                "email": "bschussek@2bepublished.at"
            },
            {
                "name": "Sebastian Bergmann",
                "email": "sebastian@phpunit.de"
            },
            {
                "name": "Adam Harvey",
                "email": "aharvey@php.net"
            }
        ],
        "description": "Provides the functionality to export PHP variables for visualization",
        "homepage": "http://www.github.com/sebastianbergmann/exporter",
        "keywords": [
            "export",
            "exporter"
        ]
    },
    {
        "name": "sebastian/global-state",
        "version": "1.1.1",
        "version_normalized": "1.1.1.0",
        "source": {
            "type": "git",
            "url": "https://github.com/sebastianbergmann/global-state.git",
            "reference": "bc37d50fea7d017d3d340f230811c9f1d7280af4"
        },
        "dist": {
            "type": "zip",
            "url": "https://api.github.com/repos/sebastianbergmann/global-state/zipball/bc37d50fea7d017d3d340f230811c9f1d7280af4",
            "reference": "bc37d50fea7d017d3d340f230811c9f1d7280af4",
            "shasum": ""
        },
        "require": {
            "php": ">=5.3.3"
        },
        "require-dev": {
            "phpunit/phpunit": "~4.2"
        },
        "suggest": {
            "ext-uopz": "*"
        },
        "time": "2015-10-12T03:26:01+00:00",
        "type": "library",
        "extra": {
            "branch-alias": {
                "dev-master": "1.0-dev"
            }
        },
        "installation-source": "dist",
        "autoload": {
            "classmap": [
                "src/"
            ]
        },
        "notification-url": "https://packagist.org/downloads/",
        "license": [
            "BSD-3-Clause"
        ],
        "authors": [
            {
                "name": "Sebastian Bergmann",
                "email": "sebastian@phpunit.de"
            }
        ],
        "description": "Snapshotting of global state",
        "homepage": "http://www.github.com/sebastianbergmann/global-state",
        "keywords": [
            "global state"
        ]
    },
    {
        "name": "sebastian/object-enumerator",
        "version": "2.0.1",
        "version_normalized": "2.0.1.0",
        "source": {
            "type": "git",
            "url": "https://github.com/sebastianbergmann/object-enumerator.git",
            "reference": "1311872ac850040a79c3c058bea3e22d0f09cbb7"
        },
        "dist": {
            "type": "zip",
            "url": "https://api.github.com/repos/sebastianbergmann/object-enumerator/zipball/1311872ac850040a79c3c058bea3e22d0f09cbb7",
            "reference": "1311872ac850040a79c3c058bea3e22d0f09cbb7",
            "shasum": ""
        },
        "require": {
            "php": ">=5.6",
            "sebastian/recursion-context": "~2.0"
        },
        "require-dev": {
            "phpunit/phpunit": "~5"
        },
        "time": "2017-02-18T15:18:39+00:00",
        "type": "library",
        "extra": {
            "branch-alias": {
                "dev-master": "2.0.x-dev"
            }
        },
        "installation-source": "dist",
        "autoload": {
            "classmap": [
                "src/"
            ]
        },
        "notification-url": "https://packagist.org/downloads/",
        "license": [
            "BSD-3-Clause"
        ],
        "authors": [
            {
                "name": "Sebastian Bergmann",
                "email": "sebastian@phpunit.de"
            }
        ],
        "description": "Traverses array structures and object graphs to enumerate all referenced objects",
        "homepage": "https://github.com/sebastianbergmann/object-enumerator/"
    },
    {
        "name": "sebastian/recursion-context",
        "version": "2.0.0",
        "version_normalized": "2.0.0.0",
        "source": {
            "type": "git",
            "url": "https://github.com/sebastianbergmann/recursion-context.git",
            "reference": "2c3ba150cbec723aa057506e73a8d33bdb286c9a"
        },
        "dist": {
            "type": "zip",
            "url": "https://api.github.com/repos/sebastianbergmann/recursion-context/zipball/2c3ba150cbec723aa057506e73a8d33bdb286c9a",
            "reference": "2c3ba150cbec723aa057506e73a8d33bdb286c9a",
            "shasum": ""
        },
        "require": {
            "php": ">=5.3.3"
        },
        "require-dev": {
            "phpunit/phpunit": "~4.4"
        },
        "time": "2016-11-19T07:33:16+00:00",
        "type": "library",
        "extra": {
            "branch-alias": {
                "dev-master": "2.0.x-dev"
            }
        },
        "installation-source": "dist",
        "autoload": {
            "classmap": [
                "src/"
            ]
        },
        "notification-url": "https://packagist.org/downloads/",
        "license": [
            "BSD-3-Clause"
        ],
        "authors": [
            {
                "name": "Jeff Welch",
                "email": "whatthejeff@gmail.com"
            },
            {
                "name": "Sebastian Bergmann",
                "email": "sebastian@phpunit.de"
            },
            {
                "name": "Adam Harvey",
                "email": "aharvey@php.net"
            }
        ],
        "description": "Provides functionality to recursively process PHP variables",
        "homepage": "http://www.github.com/sebastianbergmann/recursion-context"
    },
    {
        "name": "sebastian/resource-operations",
        "version": "1.0.0",
        "version_normalized": "1.0.0.0",
        "source": {
            "type": "git",
            "url": "https://github.com/sebastianbergmann/resource-operations.git",
            "reference": "ce990bb21759f94aeafd30209e8cfcdfa8bc3f52"
        },
        "dist": {
            "type": "zip",
            "url": "https://api.github.com/repos/sebastianbergmann/resource-operations/zipball/ce990bb21759f94aeafd30209e8cfcdfa8bc3f52",
            "reference": "ce990bb21759f94aeafd30209e8cfcdfa8bc3f52",
            "shasum": ""
        },
        "require": {
            "php": ">=5.6.0"
        },
        "time": "2015-07-28T20:34:47+00:00",
        "type": "library",
        "extra": {
            "branch-alias": {
                "dev-master": "1.0.x-dev"
            }
        },
        "installation-source": "dist",
        "autoload": {
            "classmap": [
                "src/"
            ]
        },
        "notification-url": "https://packagist.org/downloads/",
        "license": [
            "BSD-3-Clause"
        ],
        "authors": [
            {
                "name": "Sebastian Bergmann",
                "email": "sebastian@phpunit.de"
            }
        ],
        "description": "Provides a list of PHP built-in functions that operate on resources",
        "homepage": "https://www.github.com/sebastianbergmann/resource-operations"
    },
    {
        "name": "sebastian/version",
        "version": "2.0.1",
        "version_normalized": "2.0.1.0",
        "source": {
            "type": "git",
            "url": "https://github.com/sebastianbergmann/version.git",
            "reference": "99732be0ddb3361e16ad77b68ba41efc8e979019"
        },
        "dist": {
            "type": "zip",
            "url": "https://api.github.com/repos/sebastianbergmann/version/zipball/99732be0ddb3361e16ad77b68ba41efc8e979019",
            "reference": "99732be0ddb3361e16ad77b68ba41efc8e979019",
            "shasum": ""
        },
        "require": {
            "php": ">=5.6"
        },
        "time": "2016-10-03T07:35:21+00:00",
        "type": "library",
        "extra": {
            "branch-alias": {
                "dev-master": "2.0.x-dev"
            }
        },
        "installation-source": "dist",
        "autoload": {
            "classmap": [
                "src/"
            ]
        },
        "notification-url": "https://packagist.org/downloads/",
        "license": [
            "BSD-3-Clause"
        ],
        "authors": [
            {
                "name": "Sebastian Bergmann",
                "email": "sebastian@phpunit.de",
                "role": "lead"
            }
        ],
        "description": "Library that helps with managing the version number of Git-hosted PHP projects",
        "homepage": "https://github.com/sebastianbergmann/version"
    },
    {
        "name": "symfony/event-dispatcher",
        "version": "v3.4.6",
        "version_normalized": "3.4.6.0",
        "source": {
            "type": "git",
            "url": "https://github.com/symfony/event-dispatcher.git",
            "reference": "58990682ac3fdc1f563b7e705452921372aad11d"
        },
        "dist": {
            "type": "zip",
            "url": "https://api.github.com/repos/symfony/event-dispatcher/zipball/58990682ac3fdc1f563b7e705452921372aad11d",
            "reference": "58990682ac3fdc1f563b7e705452921372aad11d",
            "shasum": ""
        },
        "require": {
            "php": "^5.5.9|>=7.0.8"
        },
        "conflict": {
            "symfony/dependency-injection": "<3.3"
        },
        "require-dev": {
            "psr/log": "~1.0",
            "symfony/config": "~2.8|~3.0|~4.0",
            "symfony/dependency-injection": "~3.3|~4.0",
            "symfony/expression-language": "~2.8|~3.0|~4.0",
            "symfony/stopwatch": "~2.8|~3.0|~4.0"
        },
        "suggest": {
            "symfony/dependency-injection": "",
            "symfony/http-kernel": ""
        },
        "time": "2018-02-14T10:03:57+00:00",
        "type": "library",
        "extra": {
            "branch-alias": {
                "dev-master": "3.4-dev"
            }
        },
        "installation-source": "dist",
        "autoload": {
            "psr-4": {
                "Symfony\\Component\\EventDispatcher\\": ""
            },
            "exclude-from-classmap": [
                "/Tests/"
            ]
        },
        "notification-url": "https://packagist.org/downloads/",
        "license": [
            "MIT"
        ],
        "authors": [
            {
                "name": "Fabien Potencier",
                "email": "fabien@symfony.com"
            },
            {
                "name": "Symfony Community",
                "homepage": "https://symfony.com/contributors"
            }
        ],
        "description": "Symfony EventDispatcher Component",
        "homepage": "https://symfony.com"
    },
    {
        "name": "symfony/http-foundation",
        "version": "v3.4.6",
        "version_normalized": "3.4.6.0",
        "source": {
            "type": "git",
            "url": "https://github.com/symfony/http-foundation.git",
            "reference": "6f5935723c11b4125fc9927db6ad2feaa196e175"
        },
        "dist": {
            "type": "zip",
            "url": "https://api.github.com/repos/symfony/http-foundation/zipball/6f5935723c11b4125fc9927db6ad2feaa196e175",
            "reference": "6f5935723c11b4125fc9927db6ad2feaa196e175",
            "shasum": ""
        },
        "require": {
            "php": "^5.5.9|>=7.0.8",
            "symfony/polyfill-mbstring": "~1.1",
            "symfony/polyfill-php70": "~1.6"
        },
        "require-dev": {
            "symfony/expression-language": "~2.8|~3.0|~4.0"
        },
        "time": "2018-02-22T10:48:49+00:00",
        "type": "library",
        "extra": {
            "branch-alias": {
                "dev-master": "3.4-dev"
            }
        },
        "installation-source": "dist",
        "autoload": {
            "psr-4": {
                "Symfony\\Component\\HttpFoundation\\": ""
            },
            "exclude-from-classmap": [
                "/Tests/"
            ]
        },
        "notification-url": "https://packagist.org/downloads/",
        "license": [
            "MIT"
        ],
        "authors": [
            {
                "name": "Fabien Potencier",
                "email": "fabien@symfony.com"
            },
            {
                "name": "Symfony Community",
                "homepage": "https://symfony.com/contributors"
            }
        ],
        "description": "Symfony HttpFoundation Component",
        "homepage": "https://symfony.com"
    },
    {
        "name": "symfony/polyfill-mbstring",
        "version": "v1.7.0",
        "version_normalized": "1.7.0.0",
        "source": {
            "type": "git",
            "url": "https://github.com/symfony/polyfill-mbstring.git",
            "reference": "78be803ce01e55d3491c1397cf1c64beb9c1b63b"
        },
        "dist": {
            "type": "zip",
            "url": "https://api.github.com/repos/symfony/polyfill-mbstring/zipball/78be803ce01e55d3491c1397cf1c64beb9c1b63b",
            "reference": "78be803ce01e55d3491c1397cf1c64beb9c1b63b",
            "shasum": ""
        },
        "require": {
            "php": ">=5.3.3"
        },
        "suggest": {
            "ext-mbstring": "For best performance"
        },
        "time": "2018-01-30T19:27:44+00:00",
        "type": "library",
        "extra": {
            "branch-alias": {
                "dev-master": "1.7-dev"
            }
        },
        "installation-source": "dist",
        "autoload": {
            "psr-4": {
                "Symfony\\Polyfill\\Mbstring\\": ""
            },
            "files": [
                "bootstrap.php"
            ]
        },
        "notification-url": "https://packagist.org/downloads/",
        "license": [
            "MIT"
        ],
        "authors": [
            {
                "name": "Nicolas Grekas",
                "email": "p@tchwork.com"
            },
            {
                "name": "Symfony Community",
                "homepage": "https://symfony.com/contributors"
            }
        ],
        "description": "Symfony polyfill for the Mbstring extension",
        "homepage": "https://symfony.com",
        "keywords": [
            "compatibility",
            "mbstring",
            "polyfill",
            "portable",
            "shim"
        ]
    },
    {
        "name": "symfony/polyfill-php70",
        "version": "v1.7.0",
        "version_normalized": "1.7.0.0",
        "source": {
            "type": "git",
            "url": "https://github.com/symfony/polyfill-php70.git",
            "reference": "3532bfcd8f933a7816f3a0a59682fc404776600f"
        },
        "dist": {
            "type": "zip",
            "url": "https://api.github.com/repos/symfony/polyfill-php70/zipball/3532bfcd8f933a7816f3a0a59682fc404776600f",
            "reference": "3532bfcd8f933a7816f3a0a59682fc404776600f",
            "shasum": ""
        },
        "require": {
            "paragonie/random_compat": "~1.0|~2.0",
            "php": ">=5.3.3"
        },
        "time": "2018-01-30T19:27:44+00:00",
        "type": "library",
        "extra": {
            "branch-alias": {
                "dev-master": "1.7-dev"
            }
        },
        "installation-source": "dist",
        "autoload": {
            "psr-4": {
                "Symfony\\Polyfill\\Php70\\": ""
            },
            "files": [
                "bootstrap.php"
            ],
            "classmap": [
                "Resources/stubs"
            ]
        },
        "notification-url": "https://packagist.org/downloads/",
        "license": [
            "MIT"
        ],
        "authors": [
            {
                "name": "Nicolas Grekas",
                "email": "p@tchwork.com"
            },
            {
                "name": "Symfony Community",
                "homepage": "https://symfony.com/contributors"
            }
        ],
        "description": "Symfony polyfill backporting some PHP 7.0+ features to lower PHP versions",
        "homepage": "https://symfony.com",
        "keywords": [
            "compatibility",
            "polyfill",
            "portable",
            "shim"
        ]
    },
    {
        "name": "symfony/routing",
        "version": "v3.4.6",
        "version_normalized": "3.4.6.0",
        "source": {
            "type": "git",
            "url": "https://github.com/symfony/routing.git",
            "reference": "8773a9d52715f1a579576ce0e60213de34f5ef3e"
        },
        "dist": {
            "type": "zip",
            "url": "https://api.github.com/repos/symfony/routing/zipball/8773a9d52715f1a579576ce0e60213de34f5ef3e",
            "reference": "8773a9d52715f1a579576ce0e60213de34f5ef3e",
            "shasum": ""
        },
        "require": {
            "php": "^5.5.9|>=7.0.8"
        },
        "conflict": {
            "symfony/config": "<2.8",
            "symfony/dependency-injection": "<3.3",
            "symfony/yaml": "<3.4"
        },
        "require-dev": {
            "doctrine/annotations": "~1.0",
            "doctrine/common": "~2.2",
            "psr/log": "~1.0",
            "symfony/config": "~2.8|~3.0|~4.0",
            "symfony/dependency-injection": "~3.3|~4.0",
            "symfony/expression-language": "~2.8|~3.0|~4.0",
            "symfony/http-foundation": "~2.8|~3.0|~4.0",
            "symfony/yaml": "~3.4|~4.0"
        },
        "suggest": {
            "doctrine/annotations": "For using the annotation loader",
            "symfony/config": "For using the all-in-one router or any loader",
            "symfony/dependency-injection": "For loading routes from a service",
            "symfony/expression-language": "For using expression matching",
            "symfony/http-foundation": "For using a Symfony Request object",
            "symfony/yaml": "For using the YAML loader"
        },
        "time": "2018-02-28T21:49:22+00:00",
        "type": "library",
        "extra": {
            "branch-alias": {
                "dev-master": "3.4-dev"
            }
        },
        "installation-source": "dist",
        "autoload": {
            "psr-4": {
                "Symfony\\Component\\Routing\\": ""
            },
            "exclude-from-classmap": [
                "/Tests/"
            ]
        },
        "notification-url": "https://packagist.org/downloads/",
        "license": [
            "MIT"
        ],
        "authors": [
            {
                "name": "Fabien Potencier",
                "email": "fabien@symfony.com"
            },
            {
                "name": "Symfony Community",
                "homepage": "https://symfony.com/contributors"
            }
        ],
        "description": "Symfony Routing Component",
        "homepage": "https://symfony.com",
        "keywords": [
            "router",
            "routing",
            "uri",
            "url"
        ]
    },
    {
        "name": "symfony/yaml",
        "version": "v3.4.6",
        "version_normalized": "3.4.6.0",
        "source": {
            "type": "git",
            "url": "https://github.com/symfony/yaml.git",
            "reference": "6af42631dcf89e9c616242c900d6c52bd53bd1bb"
        },
        "dist": {
            "type": "zip",
            "url": "https://api.github.com/repos/symfony/yaml/zipball/6af42631dcf89e9c616242c900d6c52bd53bd1bb",
            "reference": "6af42631dcf89e9c616242c900d6c52bd53bd1bb",
            "shasum": ""
        },
        "require": {
            "php": "^5.5.9|>=7.0.8"
        },
        "conflict": {
            "symfony/console": "<3.4"
        },
        "require-dev": {
            "symfony/console": "~3.4|~4.0"
        },
        "suggest": {
            "symfony/console": "For validating YAML files using the lint command"
        },
        "time": "2018-02-16T09:50:28+00:00",
        "type": "library",
        "extra": {
            "branch-alias": {
                "dev-master": "3.4-dev"
            }
        },
        "installation-source": "dist",
        "autoload": {
            "psr-4": {
                "Symfony\\Component\\Yaml\\": ""
            },
            "exclude-from-classmap": [
                "/Tests/"
            ]
        },
        "notification-url": "https://packagist.org/downloads/",
        "license": [
            "MIT"
        ],
        "authors": [
            {
                "name": "Fabien Potencier",
                "email": "fabien@symfony.com"
            },
            {
                "name": "Symfony Community",
                "homepage": "https://symfony.com/contributors"
            }
        ],
        "description": "Symfony Yaml Component",
        "homepage": "https://symfony.com"
    },
    {
        "name": "thruway/client",
        "version": "0.5.3",
        "version_normalized": "0.5.3.0",
        "source": {
            "type": "git",
            "url": "https://github.com/thruway/client.git",
            "reference": "b2a9a2586bdbe7c77952f70ce0b7579c09cf215c"
        },
        "dist": {
            "type": "zip",
            "url": "https://api.github.com/repos/thruway/client/zipball/b2a9a2586bdbe7c77952f70ce0b7579c09cf215c",
            "reference": "b2a9a2586bdbe7c77952f70ce0b7579c09cf215c",
            "shasum": ""
        },
        "require": {
            "evenement/evenement": "^3.0 || ^2.0",
            "psr/log": "^1.0",
            "react/event-loop": "^0.4.3",
            "react/promise-timer": "^1.2.1",
            "voryx/thruway-common": "^1.0"
        },
        "require-dev": {
            "phpunit/phpunit": "^5.5.4",
            "thruway/pawl-transport": "dev-master"
        },
        "time": "2018-03-08T17:43:50+00:00",
        "type": "library",
        "installation-source": "dist",
        "autoload": {
            "psr-4": {
                "Thruway\\": "src/"
            }
        },
        "notification-url": "https://packagist.org/downloads/",
        "license": [
            "MIT"
        ],
        "authors": [
            {
                "name": "Matt Bonneau",
                "email": "matt@bonneau.net",
                "role": "Developer"
            },
            {
                "name": "David Dan",
                "email": "davidwdan@gmail.com",
                "role": "Developer"
            }
        ],
        "description": "Thruway WAMP client",
        "keywords": [
            "Autobahn",
            "WAMP",
            "WAMP2",
            "WebSockets",
            "client"
        ]
    },
    {
        "name": "thruway/pawl-transport",
        "version": "0.5.0",
        "version_normalized": "0.5.0.0",
        "source": {
            "type": "git",
            "url": "https://github.com/thruway/pawl-transport.git",
            "reference": "e1b352f26d395aeb49e95c92a8c648e1986ad644"
        },
        "dist": {
            "type": "zip",
            "url": "https://api.github.com/repos/thruway/pawl-transport/zipball/e1b352f26d395aeb49e95c92a8c648e1986ad644",
            "reference": "e1b352f26d395aeb49e95c92a8c648e1986ad644",
            "shasum": ""
        },
        "require": {
            "ratchet/pawl": "^0.3.1"
        },
        "time": "2017-10-23T14:18:47+00:00",
        "type": "library",
        "installation-source": "dist",
        "autoload": {
            "psr-4": {
                "Thruway\\Transport\\": "src/"
            }
        },
        "notification-url": "https://packagist.org/downloads/",
        "license": [
            "MIT"
        ],
        "authors": [
            {
                "name": "Matt Bonneau",
                "email": "matt@bonneau.net",
                "role": "Developer"
            },
            {
                "name": "David Dan",
                "email": "davidwdan@gmail.com",
                "role": "Developer"
            }
        ],
        "description": "Pawl WebSocket Transport for Thruway Client",
        "keywords": [
            "Autobahn",
            "WAMP",
            "WAMP2",
            "WebSockets",
            "client",
            "sockets",
            "thruway"
        ]
    },
    {
        "name": "thruway/ratchet-transport",
        "version": "0.5.0",
        "version_normalized": "0.5.0.0",
        "source": {
            "type": "git",
            "url": "https://github.com/thruway/ratchet-transport.git",
            "reference": "0f6cf96d120b264fbe229577db52be64ec58e4d0"
        },
        "dist": {
            "type": "zip",
            "url": "https://api.github.com/repos/thruway/ratchet-transport/zipball/0f6cf96d120b264fbe229577db52be64ec58e4d0",
            "reference": "0f6cf96d120b264fbe229577db52be64ec58e4d0",
            "shasum": ""
        },
        "require": {
            "cboden/ratchet": "^0.4",
            "guzzlehttp/psr7": "^1.4"
        },
        "time": "2017-10-03T13:38:44+00:00",
        "type": "library",
        "installation-source": "dist",
        "autoload": {
            "psr-4": {
                "Thruway\\Transport\\": "src/"
            }
        },
        "notification-url": "https://packagist.org/downloads/",
        "license": [
            "MIT"
        ],
        "authors": [
            {
                "name": "Matt Bonneau",
                "email": "matt@bonneau.net",
                "role": "Developer"
            },
            {
                "name": "David Dan",
                "email": "davidwdan@gmail.com",
                "role": "Developer"
            }
        ],
        "description": "Ratchet Transport for Thruway",
        "keywords": [
            "Autobahn",
            "WAMP",
            "WAMP2",
            "WebSockets",
            "client",
            "server",
            "sockets",
            "thruway"
        ]
    },
    {
        "name": "thruway/raw-socket-transport",
        "version": "0.5.0",
        "version_normalized": "0.5.0.0",
        "source": {
            "type": "git",
            "url": "https://github.com/thruway/raw-socket-transport.git",
            "reference": "b43cfc87b45b0af8bdd53c3fe7a72c534f5c2c65"
        },
        "dist": {
            "type": "zip",
            "url": "https://api.github.com/repos/thruway/raw-socket-transport/zipball/b43cfc87b45b0af8bdd53c3fe7a72c534f5c2c65",
            "reference": "b43cfc87b45b0af8bdd53c3fe7a72c534f5c2c65",
            "shasum": ""
        },
        "require": {
            "react/socket": "^0.8.0",
            "react/stream": "^0.7.0"
        },
        "require-dev": {
            "voryx/thruway": "0.5.x-dev"
        },
        "time": "2017-10-03T19:18:42+00:00",
        "type": "library",
        "installation-source": "dist",
        "autoload": {
            "psr-4": {
                "Thruway\\Transport\\": "src/"
            }
        },
        "notification-url": "https://packagist.org/downloads/",
        "license": [
            "MIT"
        ],
        "authors": [
            {
                "name": "Matt Bonneau",
                "email": "matt@bonneau.net",
                "role": "Developer"
            },
            {
                "name": "David Dan",
                "email": "davidwdan@gmail.com",
                "role": "Developer"
            }
        ],
        "description": "Raw Socket Transport for Thruway",
        "keywords": [
            "Autobahn",
            "WAMP",
            "WAMP2",
            "client",
            "server",
            "sockets",
            "thruway"
        ]
    },
    {
        "name": "voryx/thruway",
        "version": "0.5.2",
        "version_normalized": "0.5.2.0",
        "source": {
            "type": "git",
            "url": "https://github.com/voryx/Thruway.git",
            "reference": "d576664dc6875deac8ac9c79cbbc7c6f26677eb2"
        },
        "dist": {
            "type": "zip",
            "url": "https://api.github.com/repos/voryx/Thruway/zipball/d576664dc6875deac8ac9c79cbbc7c6f26677eb2",
            "reference": "d576664dc6875deac8ac9c79cbbc7c6f26677eb2",
            "shasum": ""
        },
        "require": {
            "php": ">=5.6",
            "react/event-loop": "^0.4.3",
            "react/promise": "^2.3.0",
            "symfony/event-dispatcher": "^2.7|^3.0|^4.0",
            "thruway/client": "^0.5.0",
            "thruway/ratchet-transport": "^0.5.0",
            "voryx/thruway-common": "^1.0.3"
        },
        "require-dev": {
            "phpunit/phpunit": "^5.5.4",
            "thruway/pawl-transport": "^0.5.0",
            "thruway/raw-socket-transport": "^0.5.0"
        },
        "time": "2018-01-22T18:18:23+00:00",
        "type": "library",
        "installation-source": "dist",
        "autoload": {
            "psr-4": {
                "Thruway\\": "src/"
            }
        },
        "notification-url": "https://packagist.org/downloads/",
        "license": [
            "MIT"
        ],
        "authors": [
            {
                "name": "Matt Bonneau",
                "email": "matt@bonneau.net",
                "role": "Developer"
            },
            {
                "name": "David Dan",
                "email": "davidwdan@gmail.com",
                "role": "Developer"
            }
        ],
        "description": "Thruway WAMP router core",
        "keywords": [
            "Autobahn",
            "WAMP",
            "WAMP2",
            "WebSockets",
            "client",
            "server",
            "sockets"
        ]
    },
    {
        "name": "voryx/thruway-common",
        "version": "1.0.3",
        "version_normalized": "1.0.3.0",
        "source": {
            "type": "git",
            "url": "https://github.com/voryx/ThruwayCommon.git",
            "reference": "5588328ca5abc83164905ff0713f26521ee389bd"
        },
        "dist": {
            "type": "zip",
            "url": "https://api.github.com/repos/voryx/ThruwayCommon/zipball/5588328ca5abc83164905ff0713f26521ee389bd",
            "reference": "5588328ca5abc83164905ff0713f26521ee389bd",
            "shasum": ""
        },
        "replace": {
            "voryx/thruway-message": "1.*"
        },
        "time": "2017-01-02T17:45:24+00:00",
        "type": "library",
        "installation-source": "dist",
        "autoload": {
            "psr-4": {
                "Thruway\\": "src"
            }
        },
        "notification-url": "https://packagist.org/downloads/",
        "license": [
            "MIT"
        ],
        "authors": [
            {
                "name": "Matt Bonneau",
                "email": "matt@bonneau.net",
                "role": "Developer"
            },
            {
                "name": "David Dan",
                "email": "davidwdan@gmail.com",
                "role": "Developer"
            }
        ],
        "description": "WAMP2 Common Library for Thruway",
        "keywords": [
            "WAMP",
            "WAMP2",
            "thruway",
            "wamp-proto"
        ]
    },
    {
        "name": "webmozart/assert",
        "version": "1.3.0",
        "version_normalized": "1.3.0.0",
        "source": {
            "type": "git",
            "url": "https://github.com/webmozart/assert.git",
            "reference": "0df1908962e7a3071564e857d86874dad1ef204a"
        },
        "dist": {
            "type": "zip",
            "url": "https://api.github.com/repos/webmozart/assert/zipball/0df1908962e7a3071564e857d86874dad1ef204a",
            "reference": "0df1908962e7a3071564e857d86874dad1ef204a",
            "shasum": ""
        },
        "require": {
            "php": "^5.3.3 || ^7.0"
        },
        "require-dev": {
            "phpunit/phpunit": "^4.6",
            "sebastian/version": "^1.0.1"
        },
        "time": "2018-01-29T19:49:41+00:00",
        "type": "library",
        "extra": {
            "branch-alias": {
                "dev-master": "1.3-dev"
            }
        },
        "installation-source": "dist",
        "autoload": {
            "psr-4": {
                "Webmozart\\Assert\\": "src/"
            }
        },
        "notification-url": "https://packagist.org/downloads/",
        "license": [
            "MIT"
        ],
        "authors": [
            {
                "name": "Bernhard Schussek",
                "email": "bschussek@gmail.com"
            }
        ],
        "description": "Assertions to validate method input/output with nice error messages.",
        "keywords": [
            "assert",
            "check",
            "validate"
        ]
    }
]
